…
```{r}
str_detect(c("a", "b", "c"), "[aeiou]")
#> [1]  TRUE FALSE FALSE
```

```{r}
babynames |> 
  filter(str_detect(name, "x")) |> 
  count(name, wt = n, sort = TRUE)
#> # A tibble: 974 × 2
#>   name           n
#>   <chr>      <int>
#> 1 Alexander 665492
#> 2 Alexis    399551
#> 3 Alex      278705
#> 4 Alexandra 232223
#> 5 Max       148787
#> 6 Alexa     123032
#> # ℹ 968 more rows
```
…
```{r}
df |> 
  separate_wider_regex(
    str,
    patterns = c(
      "<", 
      name = "[A-Za-z]+", 
      ">-", 
      gender = ".",
      "_",
      age = "[0-9]+"
    )
  )
#> # A tibble: 7 × 3
#>   name    gender age  
#>   <chr>   <chr>  <chr>
#> 1 Sheryl  F      34   
#> 2 Kisha   F      45   
#> 3 Brandon N      33   
#> 4 Sharon  F      38   
#> 5 Penny   F      58   
#> 6 Justin  M      41   
#> # ℹ 1 more row
```
…
### 1. What baby name has the most vowels? What name has the highest proportion of vowels? (Hint: what is the denominator?)

```{r}
library(dplyr)
library(stringr)

babynames |>
  count(name) |>
  mutate(
    vowels = str_count(name, "[aeiouAEIOU]")
  ) |>
  slice_max(vowels, n = 1)


#> # A tibble: 97,310 × 4
#>   name           vowels consonants
#>   <chr>     <int>  <int>      <int>
#> 1 Aaban        10      2          3
#> 2 Aabha         5      2          3
#> 3 Aabid         2      2          3
#> 4 Aabir         1      2          3
#> 5 Aabriella     5      4          5
#> 6 Aada          1      2          2
#> # ℹ 97,304 more rows
```
…
